SPOOKY Data Analysis and Inference
…
Sentiment Analysis

We will use sentences as units of analysis for this part of the tutorial, as sentences are natural languge units for organizing thoughts and ideas. For each sentence, we apply sentiment analysis using NRC sentiment lexion. The NRC Emotion Lexicon is a list of English words and their associations with eight basic emotions (anger, fear, anticipation, trust, surprise, sadness, joy, and disgust) and two sentiments (negative and positive). The annotations were manually done by crowdsourcing.

From Text Mining with R; A Tidy Approach, When human readers approach text, we use our understanding of the emotional intent of words to infer whether a section of text is positive or negative, or perhaps characterized by some other more nuanced emotion like surprise or disgust. We can also use the tools of text mining to approach the emotional content of text programmatically. This is the goal of sentiment analysis.

# Keep words that have been classified within the NRC lexicon.
get_sentiments('nrc')

## # A tibble: 13,901 x 2
##    word        sentiment
##    <chr>       <chr>    
##  1 abacus      trust    
##  2 abandon     fear     
##  3 abandon     negative 
##  4 abandon     sadness  
##  5 abandoned   anger    
##  6 abandoned   fear     
##  7 abandoned   negative 
##  8 abandoned   sadness  
##  9 abandonment anger    
## 10 abandonment fear     
## # ... with 13,891 more rows
…
count(sentiments, author, sentiment)

## # A tibble: 30 x 3
##    author sentiment        n
##    <fct>  <chr>        <int>
##  1 EAP    anger         2962
##  2 EAP    anticipation  4656
##  3 EAP    disgust       2273
##  4 EAP    fear          4287
##  5 EAP    joy           3652
##  6 EAP    negative      7833
##  7 EAP    positive     10083
##  8 EAP    sadness       4045
##  9 EAP    surprise      2539
## 10 EAP    trust         5739
## # ... with 20 more rows
…
Comparing Positivity

Lets only study the positive words. Note that the amount of postive words attributed to each author varies greatly, and the relative frequency of positive words to the other sentiments also varies between authors.

nrc_pos <- filter(get_sentiments('nrc'), sentiment == "positive")
nrc_pos

## # A tibble: 2,312 x 2
##    word           sentiment
##    <chr>          <chr>    
##  1 abba           positive 
##  2 ability        positive 
##  3 abovementioned positive 
##  4 absolute       positive 
##  5 absolution     positive 
##  6 absorbed       positive 
##  7 abundance      positive 
##  8 abundant       positive 
##  9 academic       positive 
## 10 academy        positive 
## # ... with 2,302 more rows

positive <- inner_join(spooky_wrd, nrc_pos, by = "word")
head(positive)

##        id author     word sentiment
## 1 id11008    EAP     gold  positive
## 2 id27763    MWS   lovely  positive
## 3 id27763    MWS  fertile  positive
## 4 id27763    MWS    happy  positive
## 5 id27763    MWS cheering  positive
## 6 id27763    MWS     fair  positive

count(positive, word, sort = TRUE)

## # A tibble: 1,708 x 2
##    word       n
##    <chr>  <int>
##  1 found    559
##  2 love     331
##  3 good     277
##  4 friend   270
##  5 sea      243
##  6 young    228
##  7 full     226
##  8 spirit   202
##  9 hope     195
## 10 kind     185
## # ... with 1,698 more rows
…
